<?xml version="1.0" encoding="utf-8"?>
<!-- Generator: Adobe Illustrator 15.0.2, SVG Export Plug-In  -->
<!DOCTYPE svg PUBLIC "-//W3C//DTD SVG 1.1//EN" "http://www.w3.org/Graphics/SVG/1.1/DTD/svg11.dtd" [
	<!ENTITY ns_flows "http://ns.adobe.com/Flows/1.0/">
]>
<svg version="1.1"
	 xmlns="http://www.w3.org/2000/svg" xmlns:xlink="http://www.w3.org/1999/xlink" xmlns:a="http://ns.adobe.com/AdobeSVGViewerExtensions/3.0/"
	 x="0px" y="0px" width="16px" height="16px" viewBox="-0.07 0 16 16" enable-background="new -0.07 0 16 16" xml:space="preserve">
<defs>
</defs>
<path fill="#FFFFFF" d="M4.603,8.762c0.458-0.458,1.207-0.458,1.664,0l0.971,0.971c0.457,0.457,0.457,1.205,0,1.664l-2.496,2.495
	c-0.458,0.457-1.206,0.457-1.663,0l-0.971-0.972c-0.458-0.458-0.458-1.206,0-1.663L4.603,8.762 M3.354,7.515L0.86,10.009
	c-1.146,1.147-1.147,3.013,0,4.16l0.97,0.97c1.148,1.147,3.013,1.147,4.159,0l2.496-2.495c1.146-1.146,1.147-3.012,0-4.16
	L7.514,7.515C6.367,6.367,4.501,6.368,3.354,7.515L3.354,7.515z"/>
<path fill="#FFFFFF" d="M11.257,2.107c0.456-0.457,1.206-0.457,1.663,0l0.833,0.833c0.456,0.457,0.456,1.206,0,1.663L11.257,7.1
	c-0.457,0.457-1.206,0.457-1.664,0L8.762,6.267c-0.458-0.457-0.458-1.205,0-1.664L11.257,2.107 M10.008,0.86L7.514,3.355
	c-1.146,1.146-1.147,3.012,0,4.16l0.832,0.832c1.146,1.147,3.012,1.147,4.158,0l2.494-2.495c1.147-1.146,1.15-3.012,0-4.161
	l-0.83-0.831C13.022-0.287,11.155-0.287,10.008,0.86L10.008,0.86z"/>
<g>
	<path fill="#FFFFFF" d="M10.967,5.145c0.389,0.389,0.389,1.025,0,1.414l-4.41,4.408c-0.389,0.389-1.025,0.389-1.414,0l-0.249-0.25
		c-0.389-0.389-0.389-1.026,0-1.415l4.407-4.408c0.389-0.389,1.025-0.389,1.414,0L10.967,5.145z"/>
</g>
</svg>
